CRC_Checker/simulation/qsim/CRC_Checker.msim.vcd
$comment
	File created using the following command:
		vcd file CRC_Checker.msim.vcd -direction
$end
$date
	Wed Dec 02 19:21:08 2020
$end
$version
	ModelSim Version 2020.1
$end
$timescale
	1ps
$end

$scope module crc_checker_vhd_vec_tst $end
$var wire 1 ! check_error $end
$var wire 1 " fcs [23] $end
$var wire 1 # fcs [22] $end
$var wire 1 $ fcs [21] $end
$var wire 1 % fcs [20] $end
$var wire 1 & fcs [19] $end
$var wire 1 ' fcs [18] $end
$var wire 1 ( fcs [17] $end
$var wire 1 ) fcs [16] $end
$var wire 1 * fcs [15] $end
$var wire 1 + fcs [14] $end
$var wire 1 , fcs [13] $end
$var wire 1 - fcs [12] $end
$var wire 1 . fcs [11] $end
$var wire 1 / fcs [10] $end
$var wire 1 0 fcs [9] $end
$var wire 1 1 fcs [8] $end
$var wire 1 2 fcs [7] $end
$var wire 1 3 fcs [6] $end
$var wire 1 4 fcs [5] $end
$var wire 1 5 fcs [4] $end
$var wire 1 6 fcs [3] $end
$var wire 1 7 fcs [2] $end
$var wire 1 8 fcs [1] $end
$var wire 1 9 fcs [0] $end

$scope module i1 $end
$var wire 1 : gnd $end
$var wire 1 ; vcc $end
$var wire 1 < unknown $end
$var wire 1 = devoe $end
$var wire 1 > devclrn $end
$var wire 1 ? devpor $end
$var wire 1 @ ww_devoe $end
$var wire 1 A ww_devclrn $end
$var wire 1 B ww_devpor $end
$var wire 1 C ww_fcs [23] $end
$var wire 1 D ww_fcs [22] $end
$var wire 1 E ww_fcs [21] $end
$var wire 1 F ww_fcs [20] $end
$var wire 1 G ww_fcs [19] $end
$var wire 1 H ww_fcs [18] $end
$var wire 1 I ww_fcs [17] $end
$var wire 1 J ww_fcs [16] $end
$var wire 1 K ww_fcs [15] $end
$var wire 1 L ww_fcs [14] $end
$var wire 1 M ww_fcs [13] $end
$var wire 1 N ww_fcs [12] $end
$var wire 1 O ww_fcs [11] $end
$var wire 1 P ww_fcs [10] $end
$var wire 1 Q ww_fcs [9] $end
$var wire 1 R ww_fcs [8] $end
$var wire 1 S ww_fcs [7] $end
$var wire 1 T ww_fcs [6] $end
$var wire 1 U ww_fcs [5] $end
$var wire 1 V ww_fcs [4] $end
$var wire 1 W ww_fcs [3] $end
$var wire 1 X ww_fcs [2] $end
$var wire 1 Y ww_fcs [1] $end
$var wire 1 Z ww_fcs [0] $end
$var wire 1 [ ww_check_error $end
$var wire 1 \ \check_error~output_o\ $end
$var wire 1 ] \fcs[18]~input_o\ $end
$var wire 1 ^ \fcs[15]~input_o\ $end
$var wire 1 _ \fcs[17]~input_o\ $end
$var wire 1 ` \fcs[16]~input_o\ $end
$var wire 1 a \fcs[13]~input_o\ $end
$var wire 1 b \error6|output~0_combout\ $end
$var wire 1 c \fcs[11]~input_o\ $end
$var wire 1 d \error6|output~1_combout\ $end
$var wire 1 e \fcs[0]~input_o\ $end
$var wire 1 f \fcs[19]~input_o\ $end
$var wire 1 g \fcs[8]~input_o\ $end
$var wire 1 h \fcs[2]~input_o\ $end
$var wire 1 i \error2|output~1_combout\ $end
$var wire 1 j \fcs[10]~input_o\ $end
$var wire 1 k \fcs[22]~input_o\ $end
$var wire 1 l \encoder|g15|output~0_combout\ $end
$var wire 1 m \fcs[9]~input_o\ $end
$var wire 1 n \fcs[23]~input_o\ $end
$var wire 1 o \fcs[14]~input_o\ $end
$var wire 1 p \fcs[20]~input_o\ $end
$var wire 1 q \error2|output~0_combout\ $end
$var wire 1 r \fcs[12]~input_o\ $end
$var wire 1 s \error2|output~2_combout\ $end
$var wire 1 t \error0|output~0_combout\ $end
$var wire 1 u \check_error~0_combout\ $end
$var wire 1 v \error7|output~1_combout\ $end
$var wire 1 w \fcs[4]~input_o\ $end
$var wire 1 x \error4|output~0_combout\ $end
$var wire 1 y \fcs[7]~input_o\ $end
$var wire 1 z \error7|output~0_combout\ $end
$var wire 1 { \check_error~1_combout\ $end
$var wire 1 | \fcs[21]~input_o\ $end
$var wire 1 } \fcs[6]~input_o\ $end
$var wire 1 ~ \error6|output~2_combout\ $end
$var wire 1 !! \check_error~2_combout\ $end
$var wire 1 "! \error2|output~3_combout\ $end
$var wire 1 #! \fcs[1]~input_o\ $end
$var wire 1 $! \error1|output~0_combout\ $end
$var wire 1 %! \error1|output~1_combout\ $end
$var wire 1 &! \error5|output~0_combout\ $end
$var wire 1 '! \encoder|g16|output~0_combout\ $end
$var wire 1 (! \fcs[3]~input_o\ $end
$var wire 1 )! \error3|output~0_combout\ $end
$var wire 1 *! \fcs[5]~input_o\ $end
$var wire 1 +! \error5|output~1_combout\ $end
$var wire 1 ,! \check_error~3_combout\ $end
$var wire 1 -! \check_error~4_combout\ $end
$upscope $end
$upscope $end
$enddefinitions $end
#0
$dumpvars
0!
0:
1;
x<
1=
1>
1?
1@
1A
1B
0[
0\
0]
1^
0_
0`
1a
0b
0c
0d
0e
0f
0g
0h
0i
1j
0k
1l
1m
1n
1o
1p
0q
1r
0s
0t
0u
0v
1w
1x
0y
1z
0{
0|
0}
0~
0!!
1"!
0#!
0$!
0%!
0&!
1'!
1(!
1)!
0*!
1+!
0,!
0-!
1"
0#
0$
1%
0&
0'
0(
0)
1*
1+
1,
1-
0.
1/
10
01
02
03
04
15
16
07
08
09
1C
0D
0E
1F
0G
0H
0I
0J
1K
1L
1M
1N
0O
1P
1Q
0R
0S
0T
0U
1V
1W
0X
0Y
0Z
$end
#200000
0"
0%
0*
0+
0,
0-
0/
00
05
06
0W
0V
0Q
0P
0N
0M
0L
0K
0F
0C
0n
0p
0^
0o
0a
0r
0j
0m
0w
0(!
0l
0'!
1s
0)!
0x
0"!
0z
0+!
1%!
1-!
0%!
1u
0s
0u
0-!
1\
1[
1!
0\
0[
0!
#280000
1"
1%
1*
1+
1,
1-
1/
10
15
16
18
19
1Z
1Y
1W
1V
1Q
1P
1N
1M
1L
1K
1F
1C
1n
1p
1^
1o
1a
1r
1j
1m
1w
1(!
1#!
1e
1u
1l
1'!
1s
1)!
1x
1"!
1z
1$!
1+!
1%!
0s
1-!
1\
1[
1!
#480000
0"
0%
0*
0+
0,
0-
0/
00
05
06
08
09
0Z
0Y
0W
0V
0Q
0P
0N
0M
0L
0K
0F
0C
0n
0p
0^
0o
0a
0r
0j
0m
0w
0(!
0#!
0e
0u
0l
0'!
1s
0)!
0x
0"!
0z
0$!
0+!
0%!
1u
0s
0-!
0u
1-!
0-!
0\
0[
1\
0!
1[
0\
1!
0[
0!
#560000
16
1$
1&
1'
1(
11
12
13
1W
1T
1S
1R
1I
1H
1G
1E
1|
1f
1]
1_
1g
1y
1}
1(!
1z
1%!
1b
1d
1v
1$!
0%!
1u
1!!
0d
1-!
0u
0!!
0-!
1\
1[
1!
0\
0[
0!
#760000
06
0$
0&
0'
0(
01
02
03
0W
0T
0S
0R
0I
0H
0G
0E
0|
0f
0]
0_
0g
0y
0}
0(!
0z
1%!
0b
1d
0v
0$!
0%!
1u
1!!
0d
1-!
0u
0!!
0-!
1\
1[
1!
0\
0[
0!
#870000
16
11
12
13
19
1Z
1W
1T
1S
1R
1g
1y
1}
1(!
1e
1u
1)!
1~
1z
1i
1t
1%!
1'!
0u
1s
1{
1!!
1,!
1-!
1u
1\
1[
1!
#880000
1$
1&
1'
1(
1I
1H
1G
1E
1|
1f
1]
1_
1b
0'!
1d
0i
0t
1v
0~
1$!
0)!
0%!
0{
0s
0,!
0d
0!!
