CRC_Checker/simulation/qsim/CRC_Checker.msim.vcd
$comment
	File created using the following command:
		vcd file CRC_Checker.msim.vcd -direction
$end
$date
	Wed Dec 09 00:58:02 2020
$end
$version
	ModelSim Version 2020.1
$end
$timescale
	1ps
$end

$scope module crc_checker_vhd_vec_tst $end
$var wire 1 ! check_error $end
$var wire 1 " fcs [23] $end
$var wire 1 # fcs [22] $end
$var wire 1 $ fcs [21] $end
$var wire 1 % fcs [20] $end
$var wire 1 & fcs [19] $end
$var wire 1 ' fcs [18] $end
$var wire 1 ( fcs [17] $end
$var wire 1 ) fcs [16] $end
$var wire 1 * fcs [15] $end
$var wire 1 + fcs [14] $end
$var wire 1 , fcs [13] $end
$var wire 1 - fcs [12] $end
$var wire 1 . fcs [11] $end
$var wire 1 / fcs [10] $end
$var wire 1 0 fcs [9] $end
$var wire 1 1 fcs [8] $end
$var wire 1 2 fcs [7] $end
$var wire 1 3 fcs [6] $end
$var wire 1 4 fcs [5] $end
$var wire 1 5 fcs [4] $end
$var wire 1 6 fcs [3] $end
$var wire 1 7 fcs [2] $end
$var wire 1 8 fcs [1] $end
$var wire 1 9 fcs [0] $end

$scope module i1 $end
$var wire 1 : gnd $end
$var wire 1 ; vcc $end
$var wire 1 < unknown $end
$var wire 1 = devoe $end
$var wire 1 > devclrn $end
$var wire 1 ? devpor $end
$var wire 1 @ ww_devoe $end
$var wire 1 A ww_devclrn $end
$var wire 1 B ww_devpor $end
$var wire 1 C ww_fcs [23] $end
$var wire 1 D ww_fcs [22] $end
$var wire 1 E ww_fcs [21] $end
$var wire 1 F ww_fcs [20] $end
$var wire 1 G ww_fcs [19] $end
$var wire 1 H ww_fcs [18] $end
$var wire 1 I ww_fcs [17] $end
$var wire 1 J ww_fcs [16] $end
$var wire 1 K ww_fcs [15] $end
$var wire 1 L ww_fcs [14] $end
$var wire 1 M ww_fcs [13] $end
$var wire 1 N ww_fcs [12] $end
$var wire 1 O ww_fcs [11] $end
$var wire 1 P ww_fcs [10] $end
$var wire 1 Q ww_fcs [9] $end
$var wire 1 R ww_fcs [8] $end
$var wire 1 S ww_fcs [7] $end
$var wire 1 T ww_fcs [6] $end
$var wire 1 U ww_fcs [5] $end
$var wire 1 V ww_fcs [4] $end
$var wire 1 W ww_fcs [3] $end
$var wire 1 X ww_fcs [2] $end
$var wire 1 Y ww_fcs [1] $end
$var wire 1 Z ww_fcs [0] $end
$var wire 1 [ ww_check_error $end
$var wire 1 \ \check_error~output_o\ $end
$var wire 1 ] \fcs[18]~input_o\ $end
$var wire 1 ^ \fcs[15]~input_o\ $end
$var wire 1 _ \fcs[17]~input_o\ $end
$var wire 1 ` \fcs[16]~input_o\ $end
$var wire 1 a \fcs[13]~input_o\ $end
$var wire 1 b \error6|output~0_combout\ $end
$var wire 1 c \fcs[11]~input_o\ $end
$var wire 1 d \error6|output~1_combout\ $end
$var wire 1 e \fcs[0]~input_o\ $end
$var wire 1 f \fcs[19]~input_o\ $end
$var wire 1 g \fcs[8]~input_o\ $end
$var wire 1 h \fcs[2]~input_o\ $end
$var wire 1 i \error2|output~1_combout\ $end
$var wire 1 j \fcs[10]~input_o\ $end
$var wire 1 k \fcs[22]~input_o\ $end
$var wire 1 l \encoder|g15|output~0_combout\ $end
$var wire 1 m \fcs[9]~input_o\ $end
$var wire 1 n \fcs[23]~input_o\ $end
$var wire 1 o \fcs[14]~input_o\ $end
$var wire 1 p \fcs[20]~input_o\ $end
$var wire 1 q \error2|output~0_combout\ $end
$var wire 1 r \fcs[12]~input_o\ $end
$var wire 1 s \error2|output~2_combout\ $end
$var wire 1 t \error0|output~0_combout\ $end
$var wire 1 u \check_error~0_combout\ $end
$var wire 1 v \error7|output~1_combout\ $end
$var wire 1 w \fcs[4]~input_o\ $end
$var wire 1 x \error4|output~0_combout\ $end
$var wire 1 y \fcs[7]~input_o\ $end
$var wire 1 z \error7|output~0_combout\ $end
$var wire 1 { \check_error~1_combout\ $end
$var wire 1 | \fcs[21]~input_o\ $end
$var wire 1 } \fcs[6]~input_o\ $end
$var wire 1 ~ \error6|output~2_combout\ $end
$var wire 1 !! \check_error~2_combout\ $end
$var wire 1 "! \error2|output~3_combout\ $end
$var wire 1 #! \fcs[1]~input_o\ $end
$var wire 1 $! \error1|output~0_combout\ $end
$var wire 1 %! \error1|output~1_combout\ $end
$var wire 1 &! \error5|output~0_combout\ $end
$var wire 1 '! \encoder|g16|output~0_combout\ $end
$var wire 1 (! \fcs[3]~input_o\ $end
$var wire 1 )! \error3|output~0_combout\ $end
$var wire 1 *! \fcs[5]~input_o\ $end
$var wire 1 +! \error5|output~1_combout\ $end
$var wire 1 ,! \check_error~3_combout\ $end
$var wire 1 -! \check_error~4_combout\ $end
$upscope $end
$upscope $end
$enddefinitions $end
#0
$dumpvars
1!
0:
1;
x<
1=
1>
1?
1@
1A
1B
1[
1\
0]
0^
1_
1`
0a
0b
1c
1d
1e
1f
0g
1h
1i
1j
0k
0l
1m
0n
1o
0p
0q
0r
1s
1t
1u
0v
0w
0x
0y
1z
1{
0|
1}
1~
1!!
1"!
1#!
1$!
0%!
1&!
1'!
0(!
1)!
1*!
1+!
1,!
1-!
0"
0#
0$
0%
1&
0'
1(
1)
0*
1+
0,
0-
1.
1/
10
01
02
13
14
05
06
17
18
19
0C
0D
0E
0F
1G
0H
1I
1J
0K
1L
0M
0N
1O
1P
1Q
0R
0S
1T
1U
0V
0W
1X
1Y
1Z
$end
#120000
1"
1%
0&
0(
0)
1*
1,
1-
0.
03
04
15
16
07
08
09
0Z
0Y
0X
1W
1V
0U
0T
0O
1N
1M
1K
0J
0I
0G
1F
1C
1n
1p
0f
0_
0`
1^
1a
1r
0c
0}
0*!
1w
1(!
0h
0#!
0e
0~
0d
0s
1x
0$!
0&!
1l
0i
0t
1%!
0,!
0%!
0{
0u
0!!
0-!
0\
0[
0!
#250000
18
19
1Z
1Y
1#!
1e
1u
1$!
1%!
1-!
1\
1[
1!
#360000
08
09
0%
1)
0,
14
06
1'
0/
00
12
0Z
0Y
0W
1U
1S
0Q
0P
0M
1J
1H
0F
0p
1]
1`
0a
0j
0m
1y
1*!
0(!
0#!
0e
0u
0z
1~
0"!
1&!
1v
1d
1t
1,!
0%!
#480000
0)
04
16
0"
1&
1(
0*
0-
13
05
1$
0+
11
1W
0V
0U
1T
1R
0N
0L
0K
0J
1I
1G
1E
0C
0n
1|
1f
1_
0`
0^
0o
0r
1g
1}
0*!
0w
1(!
0x
0+!
1s
1z
0&!
1b
0l
0'!
0~
0)!
0t
1!!
0s
0d
1u
0,!
0!!
0u
0-!
0\
0[
0!
#590000
18
19
17
1Z
1Y
1X
1h
1#!
1e
1u
0$!
1i
1s
1%!
1-!
1\
1[
1!
#720000
08
09
07
1)
06
0(
1*
1-
03
15
1+
1%
1,
0'
1/
10
1.
0Z
0Y
0X
0W
1V
0T
1Q
1P
1O
1N
1M
1L
1K
1J
0I
0H
1F
1p
0]
0_
1`
1^
1o
1a
1r
1c
1j
1m
0}
1w
0(!
0h
0#!
0e
0s
1)!
1~
0z
1$!
0v
1'!
1l
1q
1t
1+!
0%!
1{
1!!
#840000
18
16
1(
13
1'
14
1"
1#
1Y
1W
1U
1T
1I
1H
1D
1C
1n
1k
1]
1_
1}
1*!
1(!
1#!
0$!
0)!
0+!
0~
0b
0'!
1d
0l
0q
0t
1%!
0{
0d
0%!
0u
0!!
0-!
0\
0[
0!
#960000
0(
03
0'
0"
0#
17
0)
0*
0-
0%
0/
00
02
1X
0T
0S
0Q
0P
0N
0K
0J
0I
0H
0F
0D
0C
0n
0k
0p
0]
0_
0`
0^
0r
0j
0m
0y
0}
1h
0i
1x
1s
1z
1$!
1v
1b
1'!
1d
1+!
1q
1%!
1-!
1!!
1,!
0d
0%!
1u
1{
1\
1[
1!
