CRC_Encoder/simulation/qsim/CRC_Encoder.msim.vcd
$comment
	File created using the following command:
		vcd file CRC_Encoder.msim.vcd -direction
$end
$date
	Wed Dec 09 01:03:45 2020
$end
$version
	ModelSim Version 2020.1
$end
$timescale
	1ps
$end

$scope module crc_encoder_vhd_vec_tst $end
$var wire 1 ! fcs [23] $end
$var wire 1 " fcs [22] $end
$var wire 1 # fcs [21] $end
$var wire 1 $ fcs [20] $end
$var wire 1 % fcs [19] $end
$var wire 1 & fcs [18] $end
$var wire 1 ' fcs [17] $end
$var wire 1 ( fcs [16] $end
$var wire 1 ) fcs [15] $end
$var wire 1 * fcs [14] $end
$var wire 1 + fcs [13] $end
$var wire 1 , fcs [12] $end
$var wire 1 - fcs [11] $end
$var wire 1 . fcs [10] $end
$var wire 1 / fcs [9] $end
$var wire 1 0 fcs [8] $end
$var wire 1 1 fcs [7] $end
$var wire 1 2 fcs [6] $end
$var wire 1 3 fcs [5] $end
$var wire 1 4 fcs [4] $end
$var wire 1 5 fcs [3] $end
$var wire 1 6 fcs [2] $end
$var wire 1 7 fcs [1] $end
$var wire 1 8 fcs [0] $end
$var wire 1 9 m [15] $end
$var wire 1 : m [14] $end
$var wire 1 ; m [13] $end
$var wire 1 < m [12] $end
$var wire 1 = m [11] $end
$var wire 1 > m [10] $end
$var wire 1 ? m [9] $end
$var wire 1 @ m [8] $end
$var wire 1 A m [7] $end
$var wire 1 B m [6] $end
$var wire 1 C m [5] $end
$var wire 1 D m [4] $end
$var wire 1 E m [3] $end
$var wire 1 F m [2] $end
$var wire 1 G m [1] $end
$var wire 1 H m [0] $end

$scope module i1 $end
$var wire 1 I gnd $end
$var wire 1 J vcc $end
$var wire 1 K unknown $end
$var wire 1 L devoe $end
$var wire 1 M devclrn $end
$var wire 1 N devpor $end
$var wire 1 O ww_devoe $end
$var wire 1 P ww_devclrn $end
$var wire 1 Q ww_devpor $end
$var wire 1 R ww_m [15] $end
$var wire 1 S ww_m [14] $end
$var wire 1 T ww_m [13] $end
$var wire 1 U ww_m [12] $end
$var wire 1 V ww_m [11] $end
$var wire 1 W ww_m [10] $end
$var wire 1 X ww_m [9] $end
$var wire 1 Y ww_m [8] $end
$var wire 1 Z ww_m [7] $end
$var wire 1 [ ww_m [6] $end
$var wire 1 \ ww_m [5] $end
$var wire 1 ] ww_m [4] $end
$var wire 1 ^ ww_m [3] $end
$var wire 1 _ ww_m [2] $end
$var wire 1 ` ww_m [1] $end
$var wire 1 a ww_m [0] $end
$var wire 1 b ww_fcs [23] $end
$var wire 1 c ww_fcs [22] $end
$var wire 1 d ww_fcs [21] $end
$var wire 1 e ww_fcs [20] $end
$var wire 1 f ww_fcs [19] $end
$var wire 1 g ww_fcs [18] $end
$var wire 1 h ww_fcs [17] $end
$var wire 1 i ww_fcs [16] $end
$var wire 1 j ww_fcs [15] $end
$var wire 1 k ww_fcs [14] $end
$var wire 1 l ww_fcs [13] $end
$var wire 1 m ww_fcs [12] $end
$var wire 1 n ww_fcs [11] $end
$var wire 1 o ww_fcs [10] $end
$var wire 1 p ww_fcs [9] $end
$var wire 1 q ww_fcs [8] $end
$var wire 1 r ww_fcs [7] $end
$var wire 1 s ww_fcs [6] $end
$var wire 1 t ww_fcs [5] $end
$var wire 1 u ww_fcs [4] $end
$var wire 1 v ww_fcs [3] $end
$var wire 1 w ww_fcs [2] $end
$var wire 1 x ww_fcs [1] $end
$var wire 1 y ww_fcs [0] $end
$var wire 1 z \fcs[0]~output_o\ $end
$var wire 1 { \fcs[1]~output_o\ $end
$var wire 1 | \fcs[2]~output_o\ $end
$var wire 1 } \fcs[3]~output_o\ $end
$var wire 1 ~ \fcs[4]~output_o\ $end
$var wire 1 !! \fcs[5]~output_o\ $end
$var wire 1 "! \fcs[6]~output_o\ $end
$var wire 1 #! \fcs[7]~output_o\ $end
$var wire 1 $! \fcs[8]~output_o\ $end
$var wire 1 %! \fcs[9]~output_o\ $end
$var wire 1 &! \fcs[10]~output_o\ $end
$var wire 1 '! \fcs[11]~output_o\ $end
$var wire 1 (! \fcs[12]~output_o\ $end
$var wire 1 )! \fcs[13]~output_o\ $end
$var wire 1 *! \fcs[14]~output_o\ $end
$var wire 1 +! \fcs[15]~output_o\ $end
$var wire 1 ,! \fcs[16]~output_o\ $end
$var wire 1 -! \fcs[17]~output_o\ $end
$var wire 1 .! \fcs[18]~output_o\ $end
$var wire 1 /! \fcs[19]~output_o\ $end
$var wire 1 0! \fcs[20]~output_o\ $end
$var wire 1 1! \fcs[21]~output_o\ $end
$var wire 1 2! \fcs[22]~output_o\ $end
$var wire 1 3! \fcs[23]~output_o\ $end
$var wire 1 4! \m[10]~input_o\ $end
$var wire 1 5! \m[7]~input_o\ $end
$var wire 1 6! \m[8]~input_o\ $end
$var wire 1 7! \m[5]~input_o\ $end
$var wire 1 8! \m[9]~input_o\ $end
$var wire 1 9! \c0c|output~0_combout\ $end
$var wire 1 :! \m[0]~input_o\ $end
$var wire 1 ;! \m[15]~input_o\ $end
$var wire 1 <! \m[12]~input_o\ $end
$var wire 1 =! \m[11]~input_o\ $end
$var wire 1 >! \c0c|output~1_combout\ $end
$var wire 1 ?! \m[3]~input_o\ $end
$var wire 1 @! \c0c|output~2_combout\ $end
$var wire 1 A! \m[13]~input_o\ $end
$var wire 1 B! \m[6]~input_o\ $end
$var wire 1 C! \m[4]~input_o\ $end
$var wire 1 D! \g14|output~0_combout\ $end
$var wire 1 E! \m[1]~input_o\ $end
$var wire 1 F! \g13|output~0_combout\ $end
$var wire 1 G! \c1b|output~0_combout\ $end
$var wire 1 H! \m[2]~input_o\ $end
$var wire 1 I! \m[14]~input_o\ $end
$var wire 1 J! \g15|output~0_combout\ $end
$var wire 1 K! \c2c|output~0_combout\ $end
$var wire 1 L! \c2c|output~1_combout\ $end
$var wire 1 M! \g16|output~0_combout\ $end
$var wire 1 N! \c3b|output~0_combout\ $end
$var wire 1 O! \c4b|output~0_combout\ $end
$var wire 1 P! \c5b|output~0_combout\ $end
$var wire 1 Q! \c6c|output~0_combout\ $end
$var wire 1 R! \c6c|output~1_combout\ $end
$var wire 1 S! \c7d|output~0_combout\ $end
$upscope $end
$upscope $end
$enddefinitions $end
#0
$dumpvars
0I
1J
xK
1L
1M
1N
1O
1P
1Q
1z
0{
0|
1}
1~
1!!
1"!
0#!
1$!
1%!
0&!
0'!
0(!
0)!
0*!
0+!
1,!
0-!
1.!
1/!
10!
01!
12!
03!
14!
05!
16!
07!
08!
19!
1:!
0;!
1<!
1=!
1>!
0?!
1@!
0A!
0B!
0C!
0D!
1E!
0F!
0G!
0H!
1I!
0J!
1K!
0L!
0M!
1N!
1O!
1P!
1Q!
1R!
0S!
09
1:
0;
1<
1=
1>
0?
1@
0A
0B
0C
0D
0E
0F
1G
1H
0R
1S
0T
1U
1V
1W
0X
1Y
0Z
0[
0\
0]
0^
0_
1`
1a
0b
1c
0d
1e
1f
1g
0h
1i
0j
0k
0l
0m
0n
0o
1p
1q
0r
1s
1t
1u
1v
0w
0x
1y
0!
1"
0#
1$
1%
1&
0'
1(
0)
0*
0+
0,
0-
0.
1/
10
01
12
13
14
15
06
07
18
$end
#120000
19
0:
1;
1D
0G
0`
1]
1T
0S
1R
1;!
0I!
1A!
1C!
0E!
0O!
1D!
0K!
1G!
0N!
1J!
0>!
0@!
1K!
1O!
1L!
1S!
0G!
0P!
0%!
1(!
11!
02!
13!
0L!
0S!
0p
1m
1d
0c
1b
0}
1{
0~
0/
1,
1#
0"
1!
0v
1x
0u
0!!
0{
1#!
1|
1~
0z
17
05
04
0t
0x
1r
1w
1u
0y
0#!
0|
08
07
16
14
03
11
0r
0w
06
01
#240000
09
0;
0D
0=
0>
1?
1A
1B
1E
1F
0H
0a
1_
1^
0]
1[
1Z
1X
0W
0V
0T
0R
0;!
0A!
0=!
04!
18!
15!
1B!
0C!
1?!
1H!
0:!
0O!
0D!
1S!
1M!
0J!
0K!
1G!
1>!
1F!
1@!
0S!
1K!
1O!
1N!
0$!
1&!
1'!
0(!
1*!
1+!
1-!
0.!
0/!
01!
03!
1L!
1S!
0q
1o
1n
0m
1k
1j
1h
0g
0f
0d
0b
1{
1#!
0~
00
1.
1-
0,
1*
1)
1'
0&
0%
0#
0!
1x
1r
0u
1}
1~
0#!
1z
17
04
11
1v
1u
0r
1y
1#!
1|
18
15
14
01
1r
1w
16
11
#360000
1;
1D
1=
0A
1:
1G
0<
1C
1`
1]
1\
0Z
1V
0U
1T
1S
1I!
1A!
0<!
1=!
05!
17!
1C!
1E!
0F!
1D!
0S!
0L!
1P!
0G!
0N!
1J!
0K!
0O!
0P!
1L!
1%!
1(!
1)!
0+!
1/!
00!
11!
12!
0L!
1S!
1p
1m
1l
0j
1f
0e
1d
1c
0}
0{
1!!
0|
0#!
1/
1,
1+
0)
1%
0$
1#
1"
0v
0x
1t
0w
0r
1|
0!!
0~
07
06
05
13
01
1w
0t
0u
1#!
0|
16
04
03
1r
0w
06
11
#480000
1A
0G
0C
19
1>
0E
0F
1H
1a
0`
0_
0^
0\
1Z
1W
1R
1;!
14!
15!
07!
0?!
0H!
0E!
1:!
1N!
0Q!
1O!
0S!
0R!
1$!
0%!
0&!
0'!
0)!
1+!
1.!
13!
1q
0p
0o
0n
0l
1j
1g
1b
0#!
1~
1}
10
0/
0.
0-
0+
1)
1&
1!
0r
1u
1v
0"!
15
14
01
0s
02
#600000
09
1F
0D
0=
1<
0?
0B
0@
1_
0]
0[
0Y
0X
0V
1U
0R
0;!
1<!
0=!
08!
06!
0B!
0C!
1H!
0N!
1Q!
1S!
0M!
1K!
1L!
1P!
0>!
1F!
1G!
0@!
0S!
1N!
0P!
1R!
1&!
0(!
0*!
0,!
0-!
0/!
10!
03!
1o
0m
0k
0i
0h
0f
1e
0b
1!!
1|
1#!
0}
1.
0,
0*
0(
0'
0%
1$
0!
1t
1w
1r
0v
1"!
0!!
1}
0#!
0z
1{
16
05
13
11
1s
0t
1v
0r
0y
1x
08
17
15
03
12
01
#720000
0F
1D
1?
1B
0A
1G
1E
0H
0;
0a
1`
0_
1^
1]
1[
0Z
1X
0T
0A!
18!
05!
1B!
1C!
1?!
0H!
1E!
0:!
1>!
1@!
0F!
0R!
0D!
1S!
1M!
0G!
0N!
0Q!
1R!
1N!
0L!
0@!
0$!
1%!
0&!
1'!
1(!
1*!
0+!
1-!
01!
0q
1p
0o
1n
1m
1k
0j
1h
0d
0}
0{
1#!
0"!
1z
00
1/
0.
1-
1,
1*
0)
1'
0#
0v
0x
1r
0s
1y
0z
0|
1}
1"!
18
07
05
02
11
0y
0w
1v
1s
08
06
15
12
#840000
1F
0D
0E
1H
1C
1a
1_
0^
0]
1\
17!
0C!
0?!
1H!
1:!
0>!
0J!
1@!
0R!
0K!
0N!
09!
1R!
1L!
0S!
1K!
0O!
1$!
1&!
0'!
0(!
1)!
0L!
1S!
1q
1o
0n
0m
1l
0}
0"!
1z
10
1.
0-
0,
1+
0v
0s
1y
0~
0#!
1|
1"!
18
05
02
0u
0r
1w
1s
1#!
0|
16
04
12
01
1r
0w
06
11
#960000
0F
1E
0B
19
0:
0_
1^
0[
0S
1R
1;!
0I!
0B!
1?!
0H!
0M!
0@!
1O!
0R!
1D!
0K!
1Q!
1>!
1@!
1R!
1L!
0S!
1G!
1N!
0&!
1'!
0*!
02!
13!
0o
1n
0k
0c
1b
0"!
1~
0z
0.
1-
0*
0"
1!
0s
1u
0y
1}
1{
0#!
1|
1"!
1z
08
14
02
1v
1x
0r
1w
1s
1y
18
17
16
15
12
01
